com\epam\calendar\dao\impl\CommentDAO.class
com\epam\calendar\dao\impl\UserDAOTest.class
com\epam\calendar\dao\impl\CommentDAOTest.class
com\epam\calendar\dao\IUserDAO.class
com\epam\calendar\util\ColumnNames.class
com\epam\calendar\model\Event.class
com\epam\calendar\model\User.class
com\epam\calendar\dao\impl\EventDAO.class
com\epam\calendar\dao\IEventDAO.class
com\epam\calendar\dao\IGenericDAO.class
com\epam\calendar\actions\AuthenticationAction.class
com\epam\calendar\exception\DAOException.class
com\epam\calendar\exception\ServiceException.class
com\epam\calendar\dao\impl\UserDAO.class
com\epam\calendar\dao\impl\EventDAOTest.class
com\epam\calendar\dao\ICommentDAO.class
com\epam\calendar\model\Comment.class
